Assignment3
…
summary(anova_pincp_cow)

##              Df    Sum Sq   Mean Sq F value   Pr(>F)    
## COW_label     7 1.221e+11 1.744e+10   6.645 1.46e-07 ***
## Residuals   549 1.441e+12 2.624e+09                     
## ---
## Signif. codes:  0 '***' 0.001 '**' 0.01 '*' 0.05 '.' 0.1 ' ' 1

differences <- TukeyHSD(anova_pincp_cow)

as_tibble(cbind(pair = row.names(differences$COW_label),
                differences$RAC1P_label))

## # A tibble: 28 x 1
##    pair                                                                         
##    <chr>                                                                        
##  1 Employee of a private not-for-profit, tax-exempt, or charitable organization~
##  2 Federal government employee-Employee of a private for-profit company or busi~
##  3 Local government employee (city, county, etc.)-Employee of a private for-pro~
##  4 Self-employed in own incorporated business, professional practice or farm-Em~
##  5 Self-employed in own not incorporated business, professional practice, or fa~
##  6 State government employee-Employee of a private for-profit company or busine~
##  7 Working without pay in family business or farm-Employee of a private for-pro~
##  8 Federal government employee-Employee of a private not-for-profit, tax-exempt~
##  9 Local government employee (city, county, etc.)-Employee of a private not-for~
## 10 Self-employed in own incorporated business, professional practice or farm-Em~
## # ... with 18 more rows
…
summary(anova_povpip_cow)

##              Df   Sum Sq Mean Sq F value   Pr(>F)    
## COW_label     7   731109  104444   5.223 8.79e-06 ***
## Residuals   549 10978180   19997                     
## ---
## Signif. codes:  0 '***' 0.001 '**' 0.01 '*' 0.05 '.' 0.1 ' ' 1

differences <- TukeyHSD(anova_povpip_cow)

as_tibble(cbind(pair = row.names(differences$COW_label),
                differences$COW_label))

## # A tibble: 28 x 5
##    pair                              diff       lwr        upr       `p adj`    
##    <chr>                             <chr>      <chr>      <chr>     <chr>      
##  1 Employee of a private not-for-pr~ 80.201718~ 1.2362320~ 159.1672~ 0.04350816~
##  2 Federal government employee-Empl~ 151.85796~ -1.735397~ 305.4513~ 0.05518094~
##  3 Local government employee (city,~ 50.909797~ -19.55751~ 121.3771~ 0.35438133~
##  4 Self-employed in own incorporate~ 17.795468~ -91.84336~ 127.4342~ 0.99968664~
##  5 Self-employed in own not incorpo~ -78.71400~ -156.5615~ -0.86645~ 0.04530606~
##  6 State government employee-Employ~ -3.231317~ -120.1653~ 113.7027~ 0.99999999~
##  7 Working without pay in family bu~ 159.98296~ -144.9964~ 464.9623~ 0.75265839~
##  8 Federal government employee-Empl~ 71.656249~ -98.41909~ 241.7315~ 0.90536398~
##  9 Local government employee (city,~ -29.29192~ -130.7825~ 72.19868~ 0.98790241~
## 10 Self-employed in own incorporate~ -62.40624~ -194.1460~ 69.33354~ 0.83758414~
## # ... with 18 more rows
…
anova_wkhp_cow<- aov(WKHP ~ COW_label, data = person_data_new)

summary(anova_wkhp_cow)

##              Df Sum Sq Mean Sq F value Pr(>F)
## COW_label     7    781   111.6   0.721  0.655
## Residuals   549  85034   154.9

differences <- TukeyHSD(anova_wkhp_cow)

as_tibble(cbind(pair = row.names(differences$COW_label),
                differences$COW_label))

## # A tibble: 28 x 5
##    pair                               diff        lwr       upr       `p adj`   
##    <chr>                              <chr>       <chr>     <chr>     <chr>     
##  1 Employee of a private not-for-pro~ -3.5840176~ -10.5337~ 3.365712~ 0.7686425~
##  2 Federal government employee-Emplo~ 2.88473236~ -10.6329~ 16.40244~ 0.9981277~
##  3 Local government employee (city, ~ -0.8683164~ -7.07012~ 5.333491~ 0.9998834~
##  4 Self-employed in own incorporated~ 0.38473236~ -9.26454~ 10.03401~ 0.9999999~
##  5 Self-employed in own not incorpor~ -2.5054191~ -9.35675~ 4.345921~ 0.9539990~
##  6 State government employee-Employe~ -1.2045533~ -11.4958~ 9.086776~ 0.9999653~
##  7 Working without pay in family bus~ -8.4902676~ -35.3314~ 18.35087~ 0.9793729~
##  8 Federal government employee-Emplo~ 6.46874999~ -8.49953~ 21.43703~ 0.8931022~
##  9 Local government employee (city, ~ 2.71570121~ -6.21645~ 11.64786~ 0.9835824~
## 10 Self-employed in own incorporated~ 3.96874999~ -7.62563~ 15.56313~ 0.9678539~
## # ... with 18 more rows
…
